{
  "count": 10,
  "next": "https://my.weblate.org/api/changes/?page=2",
  "previous": null,
  "results": [
    {
      "unit": "https://my.weblate.org/api/units/1",
      "component": null,
      "translation": null,
      "glossary_term": null,
      "user": "https://my.weblate.org/api/users/1",
      "author": "https://my.weblate.org/api/users/1",
      "timestamp": "2019-07-11T16:20:20.958070Z",
      "action": 50,
      "target": "",
      "id": 1,
      "action_name": "Created project",
      "url": "https://my.weblate.org/api/changes/1/"
    },
    {
      "unit": null,
      "component": null,
      "translation": null,
      "glossary_term": null,
      "user": "https://my.weblate.org/api/users/2",
      "author": "https://my.weblate.org/api/users/2",
      "timestamp": "2019-07-11T16:21:11.939033Z",
      "action": 50,
      "target": "",
      "id": 2,
      "action_name": "Created project",
      "url": "https://my.weblate.org/api/changes/2/"
    }
  ]
}
