{
    "count": 372470,
    "next": "https://support.mozilla.org/api/2/question/?page=2",
    "previous": null,
    "results": [
        {
            "answers": [],
            "content": "<p>Alignment of Tree gird directive with angular JS not working. \nWorks fine when I open firebug and when I close firebug it goes bad again. \nWe are using FF 38.2.1 version as this is supported by our company. Cannot upgrade as of now. \nThe tree grid alignment works fine on Chrome, IE 11. \nPlease advice. \nThanks.\n</p>",
            "created": "2016-07-06T09:54:06Z",
            "creator": {
                "avatar": "https://secure.gravatar.com/avatar/3b558bbc415f8b2f598c8f2fe124f19f?s=48&d=https%3A//support.cdn.mozilla.net/static/sumo/img/avatar.png",
                "display_name": null,
                "username": "se_abhi"
            },
            "id": 1129969,
            "involved": [
                {
                    "avatar": "https://secure.gravatar.com/avatar/3b558bbc415f8b2f598c8f2fe124f19f?s=48&d=https%3A//support.cdn.mozilla.net/static/sumo/img/avatar.png",
                    "display_name": null,
                    "username": "se_abhi"
                }
            ],
            "is_archived": false,
            "is_locked": false,
            "is_solved": false,
            "is_spam": false,
            "is_taken": false,
            "last_answer": null,
            "locale": "en-US",
            "metadata": [
                {
                    "name": "category",
                    "value": "fix-problems"
                },
                {
                    "name": "ff_version",
                    "value": "38.2.1"
                },
                {
                    "name": "os",
                    "value": "Windows 7 EE"
                },
                {
                    "name": "product",
                    "value": "desktop"
                },
                {
                    "name": "useragent",
                    "value": "Mozilla/5.0 (Windows NT 10.0; WOW64) AppleWebKit/537.36 (KHTML, like Gecko) Chrome/51.0.2704.103 Safari/537.36"
                }
            ],
            "num_answers": 0,
            "num_votes": 2,
            "num_votes_past_week": 1,
            "product": "firefox",
            "solution": null,
            "solved_by": null,
            "tags": [
                {
                    "name": "Firefox 38.2.1",
                    "slug": "firefox-3821"
                },
                {
                    "name": "Firefox 38.2",
                    "slug": "firefox-382"
                },
                {
                    "name": "desktop",
                    "slug": "desktop"
                },
                {
                    "name": "fix-problems",
                    "slug": "fix-problems"
                }
            ],
            "taken_by": null,
            "taken_until": null,
            "title": "Alignment of Tree gird directive with angular JS not working.",
            "topic": "fix-problems",
            "updated": "2016-07-06T09:54:06Z",
            "updated_by": null
        },
        {
            "answers": [],
            "content": "<p>Hola! \n</p><p>Ayer reorganic\u00e9 las carpetas de mis e-mails y algunas han desaparecido. Ni las carpetas ni los e-mails correspondientes aparecen en la papelera de reciclaje as\u00ed que no s\u00e9 si simplemente est\u00e1n ocultos o si por alg\u00fan motivo se han eliminado definitivamente... Espero que no sea eso porque lo cierto es que es muy importante (y urgente) que los recupere...\n</p><p>C\u00f3mo lo v\u00e9is?\n</p><p>Muchas gracias!\n</p><p>Saludos!\n</p>",
            "created": "2016-07-06T09:47:19Z",
            "creator": {
                "avatar": "https://secure.gravatar.com/avatar/c709e9481db4c1555536c9c3c0bcbb74?s=48&d=https%3A//support.cdn.mozilla.net/static/sumo/img/avatar.png",
                "display_name": null,
                "username": "GloriaS"
            },
            "id": 1129968,
            "involved": [
                {
                    "avatar": "https://secure.gravatar.com/avatar/c709e9481db4c1555536c9c3c0bcbb74?s=48&d=https%3A//support.cdn.mozilla.net/static/sumo/img/avatar.png",
                    "display_name": null,
                    "username": "GloriaS"
                }
            ],
            "is_archived": false,
            "is_locked": false,
            "is_solved": false,
            "is_spam": false,
            "is_taken": false,
            "last_answer": null,
            "locale": "es",
            "metadata": [
                {
                    "name": "category",
                    "value": "customize"
                },
                {
                    "name": "product",
                    "value": "thunderbird"
                },
                {
                    "name": "useragent",
                    "value": "Mozilla/5.0 (Windows NT 6.1; Win64; x64) AppleWebKit/537.36 (KHTML, like Gecko) Chrome/51.0.2704.103 Safari/537.36"
                }
            ],
            "num_answers": 0,
            "num_votes": 1,
            "num_votes_past_week": 1,
            "product": "thunderbird",
            "solution": null,
            "solved_by": null,
            "tags": [
                {
                    "name": "customize",
                    "slug": "customize"
                }
            ],
            "taken_by": null,
            "taken_until": null,
            "title": "Carpetas de e-mail desaparecidas en Thunderbird",
            "topic": "customize-controls-options-and-add-ons",
            "updated": "2016-07-06T09:47:19Z",
            "updated_by": null
        }
    ]
}
