{
    "meta": {
        "limit": 10,
        "next": "/api/v1/rep/?limit=10&offset=10",
        "offset": 0,
        "previous": null,
        "total_count": 337
    },
    "objects": [
        {
            "first_name": "Aaron",
            "fullname": "Aaron Cajes",
            "last_name": "Cajes",
            "profile": {
                "avatar_url": "https://seccdn.libravatar.org/avatar/366ffdc92d5a6afb8226d326692a0352?default=https%3A%2F%2Freps.mozilla.org%2Fstatic%2Fbase%2Fimg%2Fremo%2Fremo_avatar.png",
                "city": "Makati City",
                "country": "Philippines",
                "diaspora_url": "",
                "display_name": "aaroncajes",
                "facebook_url": "",
                "functional_areas": [
                    {
                        "name": "Apps"
                    },
                    {
                        "name": "Automation"
                    },
                    {
                        "name": "Coding"
                    },
                    {
                        "name": "Creative"
                    },
                    {
                        "name": "Developer Documentation"
                    },
                    {
                        "name": "Developer Tools"
                    },
                    {
                        "name": "Firefox Mobile"
                    },
                    {
                        "name": "Firefox OS"
                    },
                    {
                        "name": "Graphics"
                    },
                    {
                        "name": "Mozilla Learning Network"
                    },
                    {
                        "name": "Open Badges"
                    },
                    {
                        "name": "Privacy"
                    },
                    {
                        "name": "Product Marketing"
                    },
                    {
                        "name": "Quality Assurance"
                    },
                    {
                        "name": "Recruiting"
                    },
                    {
                        "name": "Security"
                    },
                    {
                        "name": "Students"
                    },
                    {
                        "name": "Technical Evangelism"
                    },
                    {
                        "name": "User Engagement"
                    },
                    {
                        "name": "User Research"
                    },
                    {
                        "name": "UX"
                    },
                    {
                        "name": "Web Development"
                    },
                    {
                        "name": "WebFWD"
                    }
                ],
                "irc_name": "aaroncajes",
                "is_council": false,
                "is_mentor": false,
                "last_report_date": "2016-05-31",
                "lat": 14.567286469,
                "local_name": "Filipino, English",
                "lon": 121.013586206,
                "mentor": "/api/v1/rep/37/",
                "mozillians_profile_url": "https://mozillians.org/en-US/u/aaroncajes/",
                "personal_blog_feed": "http://www.aaroncajes.com/?feed=rss2&cat=27",
                "profile_url": "https://reps.mozilla.org/u/aaroncajes/",
                "region": "Metro Manila",
                "twitter_account": "aaroncajes"
            },
            "resource_uri": "/api/v1/rep/8/"
        },
        {
            "first_name": "Mashkawat",
            "fullname": "Mashkawat Ahsan",
            "last_name": "Ahsan",
            "profile": {
                "avatar_url": "https://seccdn.libravatar.org/avatar/999b7d575d86f3b262654f8c1c0fcb5d?default=https%3A%2F%2Freps.mozilla.org%2Fstatic%2Fbase%2Fimg%2Fremo%2Fremo_avatar.png",
                "city": "Dhaka",
                "country": "Bangladesh",
                "diaspora_url": "",
                "display_name": "ahsan_net",
                "facebook_url": "http://www.facebook.com/ahsan.net",
                "functional_areas": [
                    {
                        "name": "Business Development"
                    },
                    {
                        "name": "Firefox OS"
                    },
                    {
                        "name": "Fundraising"
                    },
                    {
                        "name": "Market Insights"
                    },
                    {
                        "name": "People"
                    },
                    {
                        "name": "Product Marketing"
                    },
                    {
                        "name": "Public Relations"
                    },
                    {
                        "name": "Recruiting"
                    },
                    {
                        "name": "User Engagement"
                    },
                    {
                        "name": "User Research"
                    },
                    {
                        "name": "WebFWD"
                    }
                ],
                "irc_name": "ahsan",
                "is_council": false,
                "is_mentor": true,
                "last_report_date": "2016-07-29",
                "lat": 23.7400976213,
                "local_name": "\u09ae\u09be\u09b6\u0995\u09be\u0993\u09df\u09be\u09a4 \u0986\u09b9\u09b8\u09be\u09a8",
                "lon": 90.4119872924,
                "mentor": "/api/v1/rep/907/",
                "mozillians_profile_url": "https://mozillians.org/en-US/u/ahsan/",
                "personal_blog_feed": "",
                "profile_url": "https://reps.mozilla.org/u/ahsan_net/",
                "region": "Dhaka",
                "twitter_account": "bdgeek01"
            },
            "resource_uri": "/api/v1/rep/15/"
        },
        {
            "first_name": "Alex",
            "fullname": "Alex Lakatos",
            "last_name": "Lakatos",
            "profile": {
                "avatar_url": "https://seccdn.libravatar.org/avatar/8ce988cce6f4de302a838aca7a485337?default=https%3A%2F%2Freps.mozilla.org%2Fstatic%2Fbase%2Fimg%2Fremo%2Fremo_avatar.png",
                "city": "London",
                "country": "United Kingdom",
                "diaspora_url": "",
                "display_name": "alex_lakatos",
                "facebook_url": "http://www.facebook.com/lakatos88",
                "functional_areas": [
                    {
                        "name": "Addons"
                    },
                    {
                        "name": "Apps"
                    },
                    {
                        "name": "Automation"
                    },
                    {
                        "name": "Coding"
                    },
                    {
                        "name": "Developer Documentation"
                    },
                    {
                        "name": "Developer Tools"
                    },
                    {
                        "name": "Firefox Mobile"
                    },
                    {
                        "name": "Firefox OS"
                    },
                    {
                        "name": "Mozilla Learning Network"
                    },
                    {
                        "name": "Open Badges"
                    },
                    {
                        "name": "Quality Assurance"
                    },
                    {
                        "name": "Support"
                    },
                    {
                        "name": "User Engagement"
                    },
                    {
                        "name": "Web Development"
                    },
                    {
                        "name": "WebFWD"
                    }
                ],
                "irc_name": "AlexLakatos",
                "is_council": false,
                "is_mentor": true,
                "last_report_date": "2016-06-10",
                "lat": 51.420068025337,
                "local_name": "",
                "lon": -0.204506278059853,
                "mentor": "/api/v1/rep/129/",
                "mozillians_profile_url": "https://mozillians.org/en-US/ce5cede9fe",
                "personal_blog_feed": "",
                "profile_url": "https://reps.mozilla.org/u/alex_lakatos/",
                "region": "Greater London",
                "twitter_account": "lakatos88"
            },
            "resource_uri": "/api/v1/rep/18/"
        },
        {
            "first_name": "Anup Kumar",
            "fullname": "Anup Kumar Mishra",
            "last_name": "Mishra",
            "profile": {
                "avatar_url": "https://seccdn.libravatar.org/avatar/4c263c1c4ea27d554867cd7de9dacb0b?default=https%3A%2F%2Freps.mozilla.org%2Fstatic%2Fbase%2Fimg%2Fremo%2Fremo_avatar.png",
                "city": "New Delhi",
                "country": "India",
                "diaspora_url": "",
                "display_name": "anupkumarmishra29",
                "facebook_url": "http://www.facebook.com/anupkumarmishra29",
                "functional_areas": [
                    {
                        "name": "Business Development"
                    },
                    {
                        "name": "Firefox Mobile"
                    },
                    {
                        "name": "Firefox OS"
                    },
                    {
                        "name": "Identity"
                    },
                    {
                        "name": "Localization"
                    },
                    {
                        "name": "Metrics"
                    },
                    {
                        "name": "Mozilla Learning Network"
                    },
                    {
                        "name": "Open Badges"
                    },
                    {
                        "name": "People"
                    },
                    {
                        "name": "Privacy"
                    },
                    {
                        "name": "Product Marketing"
                    },
                    {
                        "name": "Public Relations"
                    },
                    {
                        "name": "Quality Assurance"
                    },
                    {
                        "name": "Recruiting"
                    },
                    {
                        "name": "Security"
                    },
                    {
                        "name": "Services"
                    },
                    {
                        "name": "Students"
                    },
                    {
                        "name": "Support"
                    },
                    {
                        "name": "Systems Administration"
                    },
                    {
                        "name": "Thunderbird"
                    },
                    {
                        "name": "User Engagement"
                    },
                    {
                        "name": "User Research"
                    },
                    {
                        "name": "Web Development"
                    },
                    {
                        "name": "WebFWD"
                    },
                    {
                        "name": "WoMoz"
                    }
                ],
                "irc_name": "anup",
                "is_council": false,
                "is_mentor": false,
                "last_report_date": "2016-05-07",
                "lat": 26.8191685916,
                "local_name": "Anup",
                "lon": 83.3834838751,
                "mentor": "/api/v1/rep/15/",
                "mozillians_profile_url": "https://mozillians.org/en-US/c42a1db2b3",
                "personal_blog_feed": "http://www.dare2inanup.blogspot.com/feeds/posts/default/-/mozillareps",
                "profile_url": "https://reps.mozilla.org/u/anupkumarmishra29/",
                "region": "Delhi",
                "twitter_account": "anupmishra29"
            },
            "resource_uri": "/api/v1/rep/26/"
        },
        {
            "first_name": "Ardian",
            "fullname": "Ardian Haxha",
            "last_name": "Haxha",
            "profile": {
                "avatar_url": "https://seccdn.libravatar.org/avatar/3b30bc4178f9fd3c6d8f6f5091e36cb8?default=https%3A%2F%2Freps.mozilla.org%2Fstatic%2Fbase%2Fimg%2Fremo%2Fremo_avatar.png",
                "city": "Pristina",
                "country": "Albania",
                "diaspora_url": "https://joindiaspora.com/u/ardian",
                "display_name": "ardian",
                "facebook_url": "http://www.facebook.com/ardianhaxha",
                "functional_areas": [
                    {
                        "name": "Addons"
                    },
                    {
                        "name": "Apps"
                    },
                    {
                        "name": "Coding"
                    },
                    {
                        "name": "Creative"
                    },
                    {
                        "name": "Developer Tools"
                    },
                    {
                        "name": "Firefox Mobile"
                    },
                    {
                        "name": "People"
                    },
                    {
                        "name": "Recruiting"
                    },
                    {
                        "name": "Support"
                    },
                    {
                        "name": "Systems Administration"
                    },
                    {
                        "name": "Web Development"
                    }
                ],
                "irc_name": "ardian",
                "is_council": false,
                "is_mentor": false,
                "last_report_date": "2016-05-14",
                "lat": 42.6546038022,
                "local_name": "Ardian",
                "lon": 21.1608695984,
                "mentor": "/api/v1/rep/129/",
                "mozillians_profile_url": "https://mozillians.org/en-US/ardian",
                "personal_blog_feed": "http://ardiansblog.wordpress.com/feed/",
                "profile_url": "https://reps.mozilla.org/u/ardian/",
                "region": "Kosovo",
                "twitter_account": "ArdianHaxha"
            },
            "resource_uri": "/api/v1/rep/27/"
        },
        {
            "first_name": "Ashickur",
            "fullname": "Ashickur Rahman",
            "last_name": "Rahman",
            "profile": {
                "avatar_url": "https://seccdn.libravatar.org/avatar/e33e86f1a16889da6a6e243415133f11?default=https%3A%2F%2Freps.mozilla.org%2Fstatic%2Fbase%2Fimg%2Fremo%2Fremo_avatar.png",
                "city": "Dhaka",
                "country": "Bangladesh",
                "diaspora_url": "",
                "display_name": "ashickur_noor",
                "facebook_url": "https://www.facebook.com/ashickur.noor",
                "functional_areas": [
                    {
                        "name": "Developer Documentation"
                    },
                    {
                        "name": "Localization"
                    },
                    {
                        "name": "Mozilla Learning Network"
                    },
                    {
                        "name": "People"
                    },
                    {
                        "name": "Public Relations"
                    },
                    {
                        "name": "Recruiting"
                    },
                    {
                        "name": "Support"
                    },
                    {
                        "name": "Thunderbird"
                    },
                    {
                        "name": "Web Development"
                    }
                ],
                "irc_name": "ashickur-noor",
                "is_council": false,
                "is_mentor": false,
                "last_report_date": "2016-02-26",
                "lat": 23.7250117328,
                "local_name": "\u0986\u09b6\u09bf\u0995\u09c1\u09b0 \u09b0\u09b9\u09ae\u09be\u09a8 (\u0986\u09b6\u09bf\u0995\u09c1\u09b0_\u09a8\u09c2\u09b0)",
                "lon": 90.5877685421,
                "mentor": "/api/v1/rep/258/",
                "mozillians_profile_url": "https://mozillians.org/en-US/u/ashickur-noor/",
                "personal_blog_feed": "http://ashickunnoor.wordpress.com/category/foss/mozilla/feed/",
                "profile_url": "https://reps.mozilla.org/u/ashickur_noor/",
                "region": "Dhaka",
                "twitter_account": "centurionBD"
            },
            "resource_uri": "/api/v1/rep/31/"
        },
        {
            "first_name": "Andi",
            "fullname": "Andi Darmawan",
            "last_name": "Darmawan",
            "profile": {
                "avatar_url": "https://seccdn.libravatar.org/avatar/900028da08108e891ea505451b190e4a?default=https%3A%2F%2Freps.mozilla.org%2Fstatic%2Fbase%2Fimg%2Fremo%2Fremo_avatar.png",
                "city": "Jakarta",
                "country": "Indonesia",
                "diaspora_url": "",
                "display_name": "belutz",
                "facebook_url": "http://www.facebook.com/belutz",
                "functional_areas": [
                    {
                        "name": "Labs"
                    }
                ],
                "irc_name": "Belutz",
                "is_council": false,
                "is_mentor": false,
                "last_report_date": "2015-10-31",
                "lat": -6.24553173647,
                "local_name": "Andi Darmawan",
                "lon": 106.84453009,
                "mentor": "/api/v1/rep/180/",
                "mozillians_profile_url": "https://mozillians.org/Belutz",
                "personal_blog_feed": "",
                "profile_url": "https://reps.mozilla.org/u/belutz/",
                "region": "Jakarta",
                "twitter_account": "belutz"
            },
            "resource_uri": "/api/v1/rep/33/"
        },
        {
            "first_name": "Benoit",
            "fullname": "Benoit Leseul",
            "last_name": "Leseul",
            "profile": {
                "avatar_url": "https://seccdn.libravatar.org/avatar/f383cd79ac30207f746361c2b124db98?default=https%3A%2F%2Freps.mozilla.org%2Fstatic%2Fbase%2Fimg%2Fremo%2Fremo_avatar.png",
                "city": "Brussels",
                "country": "Belgium",
                "diaspora_url": "https://joindiaspora.com/u/benoit952",
                "display_name": "benoit_leseul",
                "facebook_url": "https://www.facebook.com/benoit.leseul",
                "functional_areas": [
                    {
                        "name": "Apps"
                    },
                    {
                        "name": "Developer Documentation"
                    },
                    {
                        "name": "Developer Tools"
                    },
                    {
                        "name": "Firefox Mobile"
                    },
                    {
                        "name": "Firefox OS"
                    },
                    {
                        "name": "Identity"
                    },
                    {
                        "name": "Localization"
                    },
                    {
                        "name": "Mozilla Learning Network"
                    },
                    {
                        "name": "People"
                    },
                    {
                        "name": "Privacy"
                    },
                    {
                        "name": "Thunderbird"
                    }
                ],
                "irc_name": "Benoit",
                "is_council": false,
                "is_mentor": false,
                "last_report_date": "2016-02-12",
                "lat": 50.846272316,
                "local_name": "Beno\u00eet",
                "lon": 4.3512725824,
                "mentor": "/api/v1/rep/109/",
                "mozillians_profile_url": "https://mozillians.org/fr/u/Benoit/",
                "personal_blog_feed": "",
                "profile_url": "https://reps.mozilla.org/u/benoit_leseul/",
                "region": "Brussels",
                "twitter_account": ""
            },
            "resource_uri": "/api/v1/rep/35/"
        },
        {
            "first_name": "Robert",
            "fullname": "Robert Reyes",
            "last_name": "Reyes",
            "profile": {
                "avatar_url": "https://seccdn.libravatar.org/avatar/fbcd6026e25652ee3442e76272e87115?default=https%3A%2F%2Freps.mozilla.org%2Fstatic%2Fbase%2Fimg%2Fremo%2Fremo_avatar.png",
                "city": "Makati City",
                "country": "Philippines",
                "diaspora_url": "",
                "display_name": "bobreyes",
                "facebook_url": "https://www.facebook.com/robertdcreyes",
                "functional_areas": [
                    {
                        "name": "Addons"
                    },
                    {
                        "name": "Advocacy and policy"
                    },
                    {
                        "name": "Apps"
                    },
                    {
                        "name": "Business Development"
                    },
                    {
                        "name": "Coding"
                    },
                    {
                        "name": "Connected Devices"
                    },
                    {
                        "name": "Developer Tools"
                    },
                    {
                        "name": "Engineering Program Management"
                    },
                    {
                        "name": "Firefox Desktop"
                    },
                    {
                        "name": "Firefox Mobile"
                    },
                    {
                        "name": "Firefox OS"
                    },
                    {
                        "name": "Fundraising"
                    },
                    {
                        "name": "Labs"
                    },
                    {
                        "name": "Localization"
                    },
                    {
                        "name": "Location Services"
                    },
                    {
                        "name": "Metrics"
                    },
                    {
                        "name": "Mozilla Learning Network"
                    },
                    {
                        "name": "Mozilla Reps"
                    },
                    {
                        "name": "Open Badges"
                    },
                    {
                        "name": "Participation"
                    },
                    {
                        "name": "People"
                    },
                    {
                        "name": "Privacy"
                    },
                    {
                        "name": "Product Marketing"
                    },
                    {
                        "name": "Public Relations"
                    },
                    {
                        "name": "Recruiting"
                    },
                    {
                        "name": "Security"
                    },
                    {
                        "name": "Services"
                    },
                    {
                        "name": "Students"
                    },
                    {
                        "name": "Support"
                    },
                    {
                        "name": "Systems Administration"
                    },
                    {
                        "name": "Technical Evangelism"
                    },
                    {
                        "name": "Thunderbird"
                    },
                    {
                        "name": "User Engagement"
                    },
                    {
                        "name": "User Research"
                    },
                    {
                        "name": "Web Development"
                    },
                    {
                        "name": "WebFWD"
                    },
                    {
                        "name": "WoMoz"
                    }
                ],
                "irc_name": "bobreyes",
                "is_council": false,
                "is_mentor": true,
                "last_report_date": "2016-07-21",
                "lat": 14.5491474123,
                "local_name": "",
                "lon": 121.013634681,
                "mentor": "/api/v1/rep/466/",
                "mozillians_profile_url": "https://mozillians.org/en-US/bobreyes",
                "personal_blog_feed": "http://www.bobreyes.com/myblog/?feed=rss2&tag=remo",
                "profile_url": "https://reps.mozilla.org/u/bobreyes/",
                "region": "Metro Manila",
                "twitter_account": "bobreyes"
            },
            "resource_uri": "/api/v1/rep/37/"
        },
        {
            "first_name": "Ben Ali",
            "fullname": "Ben Ali Chahreddine",
            "last_name": "Chahreddine",
            "profile": {
                "avatar_url": "https://seccdn.libravatar.org/avatar/36be1e3a192013c7d7ab2761c61df5e2?default=https%3A%2F%2Freps.mozilla.org%2Fstatic%2Fbase%2Fimg%2Fremo%2Fremo_avatar.png",
                "city": "Parris",
                "country": "France",
                "diaspora_url": "",
                "display_name": "benalichahreddine",
                "facebook_url": "",
                "functional_areas": [
                    {
                        "name": "Addons"
                    },
                    {
                        "name": "Apps"
                    },
                    {
                        "name": "Coding"
                    },
                    {
                        "name": "Developer Tools"
                    },
                    {
                        "name": "Infrastructure Security"
                    },
                    {
                        "name": "Labs"
                    },
                    {
                        "name": "Localization"
                    },
                    {
                        "name": "Metrics"
                    },
                    {
                        "name": "Security"
                    },
                    {
                        "name": "Systems Administration"
                    },
                    {
                        "name": "Thunderbird"
                    },
                    {
                        "name": "Web Development"
                    },
                    {
                        "name": "WebFWD"
                    }
                ],
                "irc_name": "chahrawoods",
                "is_council": false,
                "is_mentor": false,
                "last_report_date": "2016-03-30",
                "lat": 36.7492007458,
                "local_name": "",
                "lon": 10.2317905412,
                "mentor": "/api/v1/rep/465/",
                "mozillians_profile_url": "https://mozillians.org/en-US/u/chahrawoods/",
                "personal_blog_feed": "",
                "profile_url": "https://reps.mozilla.org/u/benalichahreddine/",
                "region": "Paris",
                "twitter_account": "chahrawoods"
            },
            "resource_uri": "/api/v1/rep/44/"
        }
    ]
}
